%YAML 1.1
%TAG !u! tag:unity3d.com,2011:
--- !u!114 &11400000
MonoBehaviour:
  m_ObjectHideFlags: 0
  m_CorrespondingSourceObject: {fileID: 0}
  m_PrefabInstance: {fileID: 0}
  m_PrefabAsset: {fileID: 0}
  m_GameObject: {fileID: 0}
  m_Enabled: 1
  m_EditorHideFlags: 0
  m_Script: {fileID: 11500000, guid: cffdb1dc59ccb3d47870837c3b8bf173, type: 3}
  m_Name: Simple Arrow Object Pool Data
  m_EditorClassIdentifier: 
  ArrowPrefab: {fileID: 3346044355380623492, guid: b9ddf3c442d3e2c4eb844fbc9564c044,
    type: 3}
  ArrowAmount: 10
